% generated by PS ZitherLayout version 2022.1.11
% edited by Carsten Pfeffer
Style: Singer
PMX: w160m \\nobarnumbers\
Width: 160mm
Space: 0
Meter: 3/2
Sharps: 2
Pages: 1
Systems: 4

% Title: S\"u\ss{}er die Glocken nie klingen
% Composer: Deutsche Volksweise, 1826

b4d4 b84 b44 b44 a44 b44 | d2d5 a2d4 | a4d4 a84 a44 ( a44 g44 ) a44 | b0d4 |
L: 1. S\"u-\ss{}er die Glo-cken nie klin-gen als zu der Weih-nachts-zeit;

d4d5 d85 d45 d45 b44 g44 | g2d5 e2d5 | d4d5 e85 d45 d45 c45 a44 | g0d4 |
L: s'ist als ob En-ge-lein sin-gen wie-der von Frie-de und Freud,

a4d4 a84 a44 b44 b44 b44 | d4d5 c85 a44 b2d4 | a4d4 a84 a44 b44 b44 b44 | d4d5 c85 a44 b2d4 |
L: wie sie ge-sun-gen in se-li-ger Nacht, wie sie ge-sun-gen in se-li-ger Nacht.

d4d5 c85 b44 b44 a44 g44 | ( g2d5 e2d5 ) | d4d5 e85 d45 d45 c45 a44 | g0d4 |]
L: Glo-cken mit hei-li-gem Klang, klin-get die Er-de ent-lang!
